{
    "artistic": {
        "careerA": {
            "title": "",
            "definition": "",
            "interestCode": "",
            "careerCluster": "",
            "careerPathway": "",
            "industry": "",
            "bls": "",
            "sampleJobs": [
                "jobA",
                "jobB",
                "jobC"
            ],
            "tasks": [
                "taskA",
                "taskB",
                "taskC"
            ],
            "technologySkills": [
                "techSkill1",
                "techSkill2",
                "techSkill3"
            ],
            "toolsUsed": [
                "toolsUsed1",
                "toolsUsed2",
                "toolsUsed3"
            ],
            "knowledge": [{
                    "name": "",
                    "description": ""
                },
                {
                    "name": "",
                    "description": ""
                }
            ],
            "skills": [{
                    "name": "",
                    "description": ""
                },
                {
                    "name": "",
                    "description": ""
                }
            ],
            "abilities": [{
                    "name": "",
                    "description": ""
                },
                {
                    "name": "",
                    "description": ""
                }
            ],
            "workActivities": [{
                    "name": "",
                    "description": ""
                },
                {
                    "name": "",
                    "description": ""
                }
            ],
            "detailedWorkActivities": [
                "item 1",
                "item 2",
                "item 3"
            ],
            "workStyles": [{
                    "name": "",
                    "description": ""
                },
                {
                    "name": "",
                    "description": ""
                }
            ],
            "workValues": [{
                    "name": "",
                    "description": ""
                },
                {
                    "name": "",
                    "description": ""
                }
            ],
            "relatedOccupations": [
                "occupation A",
                "occupation B"
            ]

        },
        "careerB": {
            "title": "",
            "definition": "",
            "interestCode": "",
            "careerCluster": "",
            "careerPathway": "",
            "industry": "",
            "bls": "",
            "sampleJobs": [
                "jobA",
                "jobB",
                "jobC"
            ],
            "tasks": [
                "taskA",
                "taskB",
                "taskC"
            ],
            "technologySkills": [
                "techSkill1",
                "techSkill2",
                "techSkill3"
            ],
            "toolsUsed": [
                "toolsUsed1",
                "toolsUsed2",
                "toolsUsed3"
            ],
            "knowledge": [{
                    "name": "",
                    "description": ""
                },
                {
                    "name": "",
                    "description": ""
                }
            ],
            "skills": [{
                    "name": "",
                    "description": ""
                },
                {
                    "name": "",
                    "description": ""
                }
            ],
            "abilities": [{
                    "name": "",
                    "description": ""
                },
                {
                    "name": "",
                    "description": ""
                }
            ],
            "workActivities": [{
                    "name": "",
                    "description": ""
                },
                {
                    "name": "",
                    "description": ""
                }
            ],
            "detailedWorkActivities": [
                "item 1",
                "item 2",
                "item 3"
            ],
            "workStyles": [{
                    "name": "",
                    "description": ""
                },
                {
                    "name": "",
                    "description": ""
                }
            ],
            "workValues": [{
                    "name": "",
                    "description": ""
                },
                {
                    "name": "",
                    "description": ""
                }
            ],
            "relatedOccupations": [
                "occupation A",
                "occupation B"
            ]

        }
    }
}